<?xml version="1.0" encoding="utf-8"?>
<!-- Generator: Adobe Illustrator 17.0.0, SVG Export Plug-In . SVG Version: 6.00 Build 0)  -->
<!DOCTYPE svg PUBLIC "-//W3C//DTD SVG 1.1//EN" "http://www.w3.org/Graphics/SVG/1.1/DTD/svg11.dtd">
<svg version="1.1" id="Layer_1" xmlns="http://www.w3.org/2000/svg" xmlns:xlink="http://www.w3.org/1999/xlink" x="0px" y="0px"
	 width="24px" height="24px" viewBox="0 0 24 24" enable-background="new 0 0 24 24" xml:space="preserve">
<g>
	<g>
		<g>
			<g>
				<defs>
					<polygon id="SVGID_1_" points="15.662,0.268 6.192,14.764 11.804,13.995 7.946,23.875 18.584,9.378 11.999,10.472 					"/>
				</defs>
				<use xlink:href="#SVGID_1_"  overflow="visible" fill="#FFFFFF"/>
				<clipPath id="SVGID_2_">
					<use xlink:href="#SVGID_1_"  overflow="visible"/>
				</clipPath>
				<polygon clip-path="url(#SVGID_2_)" fill="#FFFFFF" points="6.192,22.052 7.946,23.875 6.192,23.875 				"/>
				<polygon clip-path="url(#SVGID_2_)" fill="#FFFFFF" points="6.192,21.845 8.111,23.839 8.077,23.875 7.946,23.875 6.192,22.052 
									"/>
				<polygon clip-path="url(#SVGID_2_)" fill="#FFFFFF" points="6.192,21.639 8.21,23.736 8.111,23.839 6.192,21.845 				"/>
				<polygon clip-path="url(#SVGID_2_)" fill="#FFFFFF" points="6.192,21.431 8.31,23.632 8.21,23.736 6.192,21.639 				"/>
				<polygon clip-path="url(#SVGID_2_)" fill="#FFFFFF" points="6.192,21.225 8.41,23.529 8.31,23.632 6.192,21.431 				"/>
				<polygon clip-path="url(#SVGID_2_)" fill="#FFFFFF" points="6.192,21.017 8.509,23.425 8.41,23.529 6.192,21.225 				"/>
				<polygon clip-path="url(#SVGID_2_)" fill="#FFFFFF" points="6.192,20.811 8.609,23.322 8.509,23.425 6.192,21.017 				"/>
				<polygon clip-path="url(#SVGID_2_)" fill="#FFFFFF" points="6.192,20.603 8.708,23.218 8.609,23.322 6.192,20.811 				"/>
				<polygon clip-path="url(#SVGID_2_)" fill="#FFFFFF" points="6.192,20.397 8.808,23.115 8.708,23.218 6.192,20.603 				"/>
				<polygon clip-path="url(#SVGID_2_)" fill="#FFFFFF" points="6.192,20.19 8.908,23.011 8.808,23.115 6.192,20.397 				"/>
				<polygon clip-path="url(#SVGID_2_)" fill="#FFFFFF" points="6.192,19.983 9.007,22.908 8.908,23.011 6.192,20.19 				"/>
				<polygon clip-path="url(#SVGID_2_)" fill="#FFFFFF" points="6.192,19.776 9.107,22.804 9.007,22.908 6.192,19.983 				"/>
				<polygon clip-path="url(#SVGID_2_)" fill="#FFFFFF" points="6.192,19.569 9.206,22.701 9.107,22.804 6.192,19.776 				"/>
				<polygon clip-path="url(#SVGID_2_)" fill="#FFFFFF" points="6.192,19.362 9.306,22.597 9.206,22.701 6.192,19.569 				"/>
				<polygon clip-path="url(#SVGID_2_)" fill="#FFFFFF" points="6.192,19.155 9.406,22.494 9.306,22.597 6.192,19.362 				"/>
				<polygon clip-path="url(#SVGID_2_)" fill="#FFFFFF" points="6.192,18.948 9.505,22.39 9.406,22.494 6.192,19.155 				"/>
				<polygon clip-path="url(#SVGID_2_)" fill="#FFFFFF" points="6.192,18.741 9.605,22.287 9.505,22.39 6.192,18.948 				"/>
				<polygon clip-path="url(#SVGID_2_)" fill="#FFFFFF" points="6.192,18.534 9.704,22.183 9.605,22.287 6.192,18.741 				"/>
				<polygon clip-path="url(#SVGID_2_)" fill="#FFFFFF" points="6.192,18.327 9.804,22.08 9.704,22.183 6.192,18.534 				"/>
				<polygon clip-path="url(#SVGID_2_)" fill="#FFFFFF" points="6.192,18.12 9.904,21.976 9.804,22.08 6.192,18.327 				"/>
				<polygon clip-path="url(#SVGID_2_)" fill="#FFFFFF" points="6.192,17.913 10.003,21.873 9.904,21.976 6.192,18.12 				"/>
				<polygon clip-path="url(#SVGID_2_)" fill="#FFFFFF" points="6.192,17.706 10.103,21.769 10.003,21.873 6.192,17.913 				"/>
				<polygon clip-path="url(#SVGID_2_)" fill="#FFFFFF" points="6.192,17.499 10.202,21.666 10.103,21.769 6.192,17.706 				"/>
				<polygon clip-path="url(#SVGID_2_)" fill="#FFFFFF" points="6.192,17.292 10.302,21.562 10.202,21.666 6.192,17.499 				"/>
				<polygon clip-path="url(#SVGID_2_)" fill="#FFFFFF" points="6.192,17.085 10.402,21.459 10.302,21.562 6.192,17.292 				"/>
				<polygon clip-path="url(#SVGID_2_)" fill="#FFFFFF" points="6.192,16.878 10.501,21.355 10.402,21.459 6.192,17.085 				"/>
				<polygon clip-path="url(#SVGID_2_)" fill="#FFFFFF" points="6.192,16.671 10.601,21.252 10.501,21.355 6.192,16.878 				"/>
				<polygon clip-path="url(#SVGID_2_)" fill="#FFFFFF" points="6.192,16.464 10.7,21.148 10.601,21.252 6.192,16.671 				"/>
				<polygon clip-path="url(#SVGID_2_)" fill="#FFFFFF" points="6.192,16.257 10.8,21.045 10.7,21.148 6.192,16.464 				"/>
				<polygon clip-path="url(#SVGID_2_)" fill="#FFFFFF" points="6.192,16.05 10.9,20.941 10.8,21.045 6.192,16.257 				"/>
				<polygon clip-path="url(#SVGID_2_)" fill="#FFFFFF" points="6.192,15.843 10.999,20.838 10.9,20.941 6.192,16.05 				"/>
				<polygon clip-path="url(#SVGID_2_)" fill="#FFFFFF" points="6.192,15.636 11.099,20.735 10.999,20.838 6.192,15.843 				"/>
				<polygon clip-path="url(#SVGID_2_)" fill="#FFFFFF" points="6.192,15.429 11.198,20.631 11.099,20.735 6.192,15.636 				"/>
				<polygon clip-path="url(#SVGID_2_)" fill="#FFFFFF" points="6.192,15.222 11.298,20.528 11.198,20.631 6.192,15.429 				"/>
				<polygon clip-path="url(#SVGID_2_)" fill="#FFFFFF" points="6.192,15.015 11.398,20.424 11.298,20.528 6.192,15.222 				"/>
				<polygon clip-path="url(#SVGID_2_)" fill="#FFFFFF" points="6.192,14.808 11.497,20.321 11.398,20.424 6.192,15.015 				"/>
				<polygon clip-path="url(#SVGID_2_)" fill="#FFFFFF" points="6.192,14.601 11.597,20.217 11.497,20.321 6.192,14.808 				"/>
				<polygon clip-path="url(#SVGID_2_)" fill="#FFFFFF" points="6.192,14.394 11.696,20.114 11.597,20.217 6.192,14.601 				"/>
				<polygon clip-path="url(#SVGID_2_)" fill="#FFFFFF" points="6.192,14.187 11.796,20.01 11.696,20.114 6.192,14.394 				"/>
				<polygon clip-path="url(#SVGID_2_)" fill="#FFFFFF" points="6.192,13.98 11.896,19.907 11.796,20.01 6.192,14.187 				"/>
				<polygon clip-path="url(#SVGID_2_)" fill="#FFFFFF" points="6.192,13.773 11.995,19.803 11.896,19.907 6.192,13.98 				"/>
				<polygon clip-path="url(#SVGID_2_)" fill="#FFFFFF" points="6.192,13.566 12.095,19.7 11.995,19.803 6.192,13.773 				"/>
				<polygon clip-path="url(#SVGID_2_)" fill="#FFFFFF" points="6.192,13.359 12.194,19.596 12.095,19.7 6.192,13.566 				"/>
				<polygon clip-path="url(#SVGID_2_)" fill="#FFFFFF" points="6.192,13.152 12.294,19.493 12.194,19.596 6.192,13.359 				"/>
				<polygon clip-path="url(#SVGID_2_)" fill="#FFFFFF" points="6.192,12.945 12.394,19.389 12.294,19.493 6.192,13.152 				"/>
				<polygon clip-path="url(#SVGID_2_)" fill="#FFFFFF" points="6.192,12.738 12.493,19.286 12.394,19.389 6.192,12.945 				"/>
				<polygon clip-path="url(#SVGID_2_)" fill="#FFFFFF" points="6.192,12.531 12.593,19.182 12.493,19.286 6.192,12.738 				"/>
				<polygon clip-path="url(#SVGID_2_)" fill="#FFFFFF" points="6.192,12.324 12.692,19.079 12.593,19.182 6.192,12.531 				"/>
				<polygon clip-path="url(#SVGID_2_)" fill="#FFFFFF" points="6.192,12.117 12.792,18.975 12.692,19.079 6.192,12.324 				"/>
				<polygon clip-path="url(#SVGID_2_)" fill="#FFFFFF" points="6.192,11.91 12.892,18.872 12.792,18.975 6.192,12.117 				"/>
				<polygon clip-path="url(#SVGID_2_)" fill="#FFFFFF" points="6.192,11.703 12.991,18.768 12.892,18.872 6.192,11.91 				"/>
				<polygon clip-path="url(#SVGID_2_)" fill="#FFFFFF" points="6.192,11.496 13.091,18.665 12.991,18.768 6.192,11.703 				"/>
				<polygon clip-path="url(#SVGID_2_)" fill="#FFFFFF" points="6.192,11.289 13.19,18.561 13.091,18.665 6.192,11.496 				"/>
				<polygon clip-path="url(#SVGID_2_)" fill="#FFFFFF" points="6.192,11.082 13.29,18.458 13.19,18.561 6.192,11.289 				"/>
				<polygon clip-path="url(#SVGID_2_)" fill="#FFFFFF" points="6.192,10.875 13.389,18.354 13.29,18.458 6.192,11.082 				"/>
				<polygon clip-path="url(#SVGID_2_)" fill="#FFFFFF" points="6.192,10.668 13.489,18.251 13.389,18.354 6.192,10.875 				"/>
				<polygon clip-path="url(#SVGID_2_)" fill="#FFFFFF" points="6.192,10.461 13.589,18.147 13.489,18.251 6.192,10.668 				"/>
				<polygon clip-path="url(#SVGID_2_)" fill="#FFFFFF" points="6.192,10.254 13.688,18.044 13.589,18.147 6.192,10.461 				"/>
				<polygon clip-path="url(#SVGID_2_)" fill="#FFFFFF" points="6.192,10.047 13.788,17.94 13.688,18.044 6.192,10.254 				"/>
				<polygon clip-path="url(#SVGID_2_)" fill="#FFFFFF" points="6.192,9.971 6.255,9.906 13.888,17.837 13.788,17.94 6.192,10.047 
									"/>
				<polygon clip-path="url(#SVGID_2_)" fill="#FFFFFF" points="6.255,9.906 6.355,9.802 13.987,17.733 13.888,17.837 				"/>
				<polygon clip-path="url(#SVGID_2_)" fill="#FFFFFF" points="6.355,9.802 6.454,9.699 14.087,17.63 13.987,17.733 				"/>
				<polygon clip-path="url(#SVGID_2_)" fill="#FFFFFF" points="6.454,9.699 6.554,9.595 14.186,17.526 14.087,17.63 				"/>
				<polygon clip-path="url(#SVGID_2_)" fill="#FFFFFF" points="6.554,9.595 6.653,9.492 14.286,17.423 14.186,17.526 				"/>
				<polygon clip-path="url(#SVGID_2_)" fill="#FFFFFF" points="6.653,9.492 6.753,9.388 14.386,17.319 14.286,17.423 				"/>
				<polygon clip-path="url(#SVGID_2_)" fill="#FFFFFF" points="6.753,9.388 6.853,9.285 14.485,17.216 14.386,17.319 				"/>
				<polygon clip-path="url(#SVGID_2_)" fill="#FFFFFF" points="6.853,9.285 6.952,9.181 14.585,17.112 14.485,17.216 				"/>
				<polygon clip-path="url(#SVGID_2_)" fill="#FFFFFF" points="6.952,9.181 7.052,9.078 14.684,17.009 14.585,17.112 				"/>
				<polygon clip-path="url(#SVGID_2_)" fill="#FFFFFF" points="7.052,9.078 7.151,8.974 14.784,16.905 14.684,17.009 				"/>
				<polygon clip-path="url(#SVGID_2_)" fill="#FFFFFF" points="7.151,8.974 7.251,8.871 14.884,16.802 14.784,16.905 				"/>
				<polygon clip-path="url(#SVGID_2_)" fill="#FFFFFF" points="7.251,8.871 7.35,8.767 14.983,16.698 14.884,16.802 				"/>
				<polygon clip-path="url(#SVGID_2_)" fill="#FFFFFF" points="7.35,8.767 7.45,8.664 15.083,16.595 14.983,16.698 				"/>
				<polygon clip-path="url(#SVGID_2_)" fill="#FFFFFF" points="7.45,8.664 7.55,8.56 15.182,16.491 15.083,16.595 				"/>
				<polygon clip-path="url(#SVGID_2_)" fill="#FFFFFF" points="7.55,8.56 7.649,8.457 15.282,16.388 15.182,16.491 				"/>
				<polygon clip-path="url(#SVGID_2_)" fill="#FFFFFF" points="7.649,8.457 7.749,8.354 15.381,16.284 15.282,16.388 				"/>
				<polygon clip-path="url(#SVGID_2_)" fill="#FFFFFF" points="7.749,8.354 7.849,8.25 15.481,16.181 15.381,16.284 				"/>
				<polygon clip-path="url(#SVGID_2_)" fill="#FFFFFF" points="7.849,8.25 7.948,8.146 15.581,16.077 15.481,16.181 				"/>
				<polygon clip-path="url(#SVGID_2_)" fill="#FFFFFF" points="7.948,8.146 8.048,8.043 15.68,15.974 15.581,16.077 				"/>
				<polygon clip-path="url(#SVGID_2_)" fill="#FFFFFF" points="8.048,8.043 8.199,7.886 15.831,15.817 15.68,15.974 				"/>
				<polygon clip-path="url(#SVGID_2_)" fill="#FFFFFF" points="8.199,7.886 8.35,7.729 15.982,15.66 15.831,15.817 				"/>
				<polygon clip-path="url(#SVGID_2_)" fill="#FFFFFF" points="8.35,7.729 8.501,7.572 16.133,15.503 15.982,15.66 				"/>
				<polygon clip-path="url(#SVGID_2_)" fill="#FFFFFF" points="8.501,7.572 8.652,7.415 16.284,15.346 16.133,15.503 				"/>
				<polygon clip-path="url(#SVGID_2_)" fill="#FFFFFF" points="8.652,7.415 8.803,7.259 16.435,15.19 16.284,15.346 				"/>
				<polygon clip-path="url(#SVGID_2_)" fill="#FFFFFF" points="8.803,7.259 8.954,7.102 16.586,15.033 16.435,15.19 				"/>
				<polygon clip-path="url(#SVGID_2_)" fill="#FFFFFF" points="8.954,7.102 9.105,6.945 16.737,14.876 16.586,15.033 				"/>
				<polygon clip-path="url(#SVGID_2_)" fill="#FFFFFF" points="9.105,6.945 9.255,6.788 16.888,14.719 16.737,14.876 				"/>
				<polygon clip-path="url(#SVGID_2_)" fill="#FFFFFF" points="9.255,6.788 9.406,6.631 17.039,14.562 16.888,14.719 				"/>
				<polygon clip-path="url(#SVGID_2_)" fill="#FFFFFF" points="9.406,6.631 9.557,6.474 17.19,14.405 17.039,14.562 				"/>
				<polygon clip-path="url(#SVGID_2_)" fill="#FFFFFF" points="9.557,6.474 9.708,6.318 17.341,14.248 17.19,14.405 				"/>
				<polygon clip-path="url(#SVGID_2_)" fill="#FFFFFF" points="9.708,6.318 9.859,6.161 17.492,14.091 17.341,14.248 				"/>
				<polygon clip-path="url(#SVGID_2_)" fill="#FFFFFF" points="9.859,6.161 10.01,6.004 17.643,13.935 17.492,14.091 				"/>
				<polygon clip-path="url(#SVGID_2_)" fill="#FFFFFF" points="10.01,6.004 10.161,5.847 17.794,13.778 17.643,13.935 				"/>
				<polygon clip-path="url(#SVGID_2_)" fill="#FFFFFF" points="10.161,5.847 10.312,5.69 17.945,13.621 17.794,13.778 				"/>
				<polygon clip-path="url(#SVGID_2_)" fill="#FFFFFF" points="10.312,5.69 10.463,5.533 18.096,13.464 17.945,13.621 				"/>
				<polygon clip-path="url(#SVGID_2_)" fill="#FFFFFF" points="10.463,5.533 10.614,5.376 18.247,13.307 18.096,13.464 				"/>
				<polygon clip-path="url(#SVGID_2_)" fill="#FFFFFF" points="10.614,5.376 10.765,5.219 18.398,13.15 18.247,13.307 				"/>
				<polygon clip-path="url(#SVGID_2_)" fill="#FFFFFF" points="10.765,5.219 10.916,5.062 18.549,12.993 18.398,13.15 				"/>
				<polygon clip-path="url(#SVGID_2_)" fill="#FFFFFF" points="10.916,5.062 11.067,4.906 18.584,12.717 18.584,12.956 
					18.549,12.993 				"/>
				<polygon clip-path="url(#SVGID_2_)" fill="#FFFFFF" points="11.067,4.906 11.218,4.749 18.584,12.403 18.584,12.717 				"/>
				<polygon clip-path="url(#SVGID_2_)" fill="#FFFFFF" points="11.218,4.749 11.369,4.592 18.584,12.089 18.584,12.403 				"/>
				<polygon clip-path="url(#SVGID_2_)" fill="#FFFFFF" points="11.369,4.592 11.52,4.435 18.584,11.775 18.584,12.089 				"/>
				<polygon clip-path="url(#SVGID_2_)" fill="#FFFFFF" points="11.52,4.435 11.671,4.278 18.584,11.462 18.584,11.775 				"/>
				<polygon clip-path="url(#SVGID_2_)" fill="#FFFFFF" points="11.671,4.278 11.822,4.121 18.584,11.148 18.584,11.462 				"/>
				<polygon clip-path="url(#SVGID_2_)" fill="#FFFFFF" points="11.822,4.121 11.973,3.964 18.584,10.834 18.584,11.148 				"/>
				<polygon clip-path="url(#SVGID_2_)" fill="#FFFFFF" points="11.973,3.964 12.124,3.808 18.584,10.52 18.584,10.834 				"/>
				<polygon clip-path="url(#SVGID_2_)" fill="#FFFFFF" points="12.124,3.808 12.275,3.651 18.584,10.207 18.584,10.52 				"/>
				<polygon clip-path="url(#SVGID_2_)" fill="#FFFFFF" points="12.275,3.651 12.426,3.494 18.584,9.893 18.584,10.207 				"/>
				<polygon clip-path="url(#SVGID_2_)" fill="#FFFFFF" points="12.426,3.494 12.577,3.337 18.584,9.579 18.584,9.893 				"/>
				<polygon clip-path="url(#SVGID_2_)" fill="#FFFFFF" points="12.577,3.337 12.728,3.18 18.584,9.266 18.584,9.579 				"/>
				<polygon clip-path="url(#SVGID_2_)" fill="#FFFFFF" points="12.728,3.18 12.879,3.023 18.584,8.952 18.584,9.266 				"/>
				<polygon clip-path="url(#SVGID_2_)" fill="#FFFFFF" points="12.879,3.023 13.03,2.866 18.584,8.638 18.584,8.952 				"/>
				<polygon clip-path="url(#SVGID_2_)" fill="#FFFFFF" points="13.03,2.866 13.181,2.709 18.584,8.324 18.584,8.638 				"/>
				<polygon clip-path="url(#SVGID_2_)" fill="#FFFFFF" points="13.181,2.709 13.332,2.553 18.584,8.011 18.584,8.324 				"/>
				<polygon clip-path="url(#SVGID_2_)" fill="#FFFFFF" points="13.332,2.553 13.482,2.396 18.584,7.697 18.584,8.011 				"/>
				<polygon clip-path="url(#SVGID_2_)" fill="#FFFFFF" points="13.482,2.396 13.634,2.239 18.584,7.383 18.584,7.697 				"/>
				<polygon clip-path="url(#SVGID_2_)" fill="#FFFFFF" points="13.634,2.239 13.784,2.082 18.584,7.07 18.584,7.383 				"/>
				<polygon clip-path="url(#SVGID_2_)" fill="#FFFFFF" points="13.784,2.082 13.936,1.925 18.584,6.756 18.584,7.07 				"/>
				<polygon clip-path="url(#SVGID_2_)" fill="#FFFFFF" points="13.936,1.925 14.086,1.768 18.584,6.442 18.584,6.756 				"/>
				<polygon clip-path="url(#SVGID_2_)" fill="#FFFFFF" points="14.086,1.768 14.237,1.611 18.584,6.128 18.584,6.442 				"/>
				<polygon clip-path="url(#SVGID_2_)" fill="#FFFFFF" points="14.237,1.611 14.388,1.455 18.584,5.814 18.584,6.128 				"/>
				<polygon clip-path="url(#SVGID_2_)" fill="#FFFFFF" points="14.388,1.455 14.539,1.298 18.584,5.501 18.584,5.814 				"/>
				<polygon clip-path="url(#SVGID_2_)" fill="#FFFFFF" points="14.539,1.298 14.69,1.141 18.584,5.187 18.584,5.501 				"/>
				<polygon clip-path="url(#SVGID_2_)" fill="#FFFFFF" points="14.69,1.141 14.841,0.984 18.584,4.873 18.584,5.187 				"/>
				<polygon clip-path="url(#SVGID_2_)" fill="#FFFFFF" points="14.841,0.984 14.992,0.827 18.584,4.56 18.584,4.873 				"/>
				<polygon clip-path="url(#SVGID_2_)" fill="#FFFFFF" points="14.992,0.827 15.143,0.67 18.584,4.246 18.584,4.56 				"/>
				<polygon clip-path="url(#SVGID_2_)" fill="#FFFFFF" points="15.143,0.67 15.294,0.513 18.584,3.932 18.584,4.246 				"/>
				<polygon clip-path="url(#SVGID_2_)" fill="#FFFFFF" points="15.294,0.513 15.445,0.356 18.584,3.618 18.584,3.932 				"/>
				<polygon clip-path="url(#SVGID_2_)" fill="#FFFFFF" points="15.445,0.356 15.531,0.268 15.662,0.268 18.584,3.305 18.584,3.618 
									"/>
				<polygon clip-path="url(#SVGID_2_)" fill="#FFFFFF" points="18.584,3.305 15.662,0.268 18.584,0.268 				"/>
			</g>
		</g>
	</g>
</g>
</svg>
